{
"0":[
7,
1,
2,
6,
8
],
"1":[
0,
3,
4
],
"2":[
0,
9,
10
],
"3":[
4,
11
],
"4":[
1,
5,
11
],
"5":[
1,
4,
6,
11,
12,
18
],
"6":[
0,
5,
7,
12
],
"7":[
0,
6,
8,
12
],
"8":[
0,
7,
9,
12,
13
],
"9":[
2,
8,
10,
13
],
"10":[
2,
14,
13,
15
],
"11":[
3,
4,
16,
17,
5
],
"12":[
4,
6,
5,
13,
19,
7
],
"13":[
9,
10,
12,
14,
20
],
"14":[
10,
13,
15,
20
],
"15":[
10,
14
],
"16":[
11,
17
],
"17":[
11,
18
],
"18":[
17,
5,
19
],
"19":[
18,
12,
20
],
"20":[
13,
14,
19
]
}